[ {
  "id" : "572e9d72e4b089259cf7dc71",
  "amount" : 244.88,
  "sourceCurrency" : "MXN",
  "targetCurrency" : "USD",
  "recipientBankId" : "572e9d72e4b089259cf7dc6c",
  "iban" : "8084450725",
  "created" : "2016-05-08T01:59:14.89"
}, {
  "id" : "572e9d72e4b089259cf7dc73",
  "amount" : 1.22,
  "sourceCurrency" : "MXN",
  "targetCurrency" : "EUR",
  "recipientBankId" : "572e9d72e4b089259cf7dc65",
  "iban" : "2436160555",
  "created" : "2016-05-08T01:59:14.902"
}, {
  "id" : "572e9d72e4b089259cf7dc75",
  "amount" : 27.06,
  "sourceCurrency" : "MXN",
  "targetCurrency" : "EUR",
  "recipientBankId" : "572e9d72e4b089259cf7dc65",
  "iban" : "0383521017",
  "created" : "2016-05-08T01:59:14.913"
}, {
  "id" : "572e9d72e4b089259cf7dc77",
  "amount" : 31.04,
  "sourceCurrency" : "GBP",
  "targetCurrency" : "INR",
  "recipientBankId" : "572e9d72e4b089259cf7dc67",
  "iban" : "7872557518",
  "created" : "2016-05-08T01:59:14.924"
}, {
  "id" : "572e9d72e4b089259cf7dc79",
  "amount" : 73469.59,
  "sourceCurrency" : "GBP",
  "targetCurrency" : "EUR",
  "recipientBankId" : "572e9d72e4b089259cf7dc65",
  "iban" : "2518247682",
  "created" : "2016-05-08T01:59:14.935"
}, {
  "id" : "572e9d72e4b089259cf7dc7b",
  "amount" : 14.10,
  "sourceCurrency" : "MXN",
  "targetCurrency" : "EUR",
  "recipientBankId" : "572e9d72e4b089259cf7dc65",
  "iban" : "2243034678",
  "created" : "2016-05-08T01:59:14.945"
}, {
  "id" : "572e9d72e4b089259cf7dc7d",
  "amount" : 14.11,
  "sourceCurrency" : "EUR",
  "targetCurrency" : "MXN",
  "recipientBankId" : "572e9d72e4b089259cf7dc6a",
  "iban" : "0574662005",
  "created" : "2016-05-08T01:59:14.957"
}, {
  "id" : "572e9d72e4b089259cf7dc7f",
  "amount" : 12.73,
  "sourceCurrency" : "MXN",
  "targetCurrency" : "USD",
  "recipientBankId" : "572e9d72e4b089259cf7dc6c",
  "iban" : "8146150268",
  "created" : "2016-05-08T01:59:14.967"
}, {
  "id" : "572e9d72e4b089259cf7dc81",
  "amount" : 29209.56,
  "sourceCurrency" : "GBP",
  "targetCurrency" : "MXN",
  "recipientBankId" : "572e9d72e4b089259cf7dc6a",
  "iban" : "5347824728",
  "created" : "2016-05-08T01:59:14.978"
}, {
  "id" : "572e9d72e4b089259cf7dc83",
  "amount" : 65.27,
  "sourceCurrency" : "EUR",
  "targetCurrency" : "MXN",
  "recipientBankId" : "572e9d72e4b089259cf7dc6a",
  "iban" : "5472714703",
  "created" : "2016-05-08T01:59:14.988"
}, {
  "id" : "572e9d72e4b089259cf7dc85",
  "amount" : 37428.25,
  "sourceCurrency" : "EUR",
  "targetCurrency" : "INR",
  "recipientBankId" : "572e9d72e4b089259cf7dc67",
  "iban" : "1377401722",
  "created" : "2016-05-08T01:59:14.999"
}, {
  "id" : "572e9d73e4b089259cf7dc87",
  "amount" : 92198.40,
  "sourceCurrency" : "EUR",
  "targetCurrency" : "USD",
  "recipientBankId" : "572e9d72e4b089259cf7dc6c",
  "iban" : "2122522207",
  "created" : "2016-05-08T01:59:15.01"
}, {
  "id" : "572e9d73e4b089259cf7dc89",
  "amount" : 914.77,
  "sourceCurrency" : "EUR",
  "targetCurrency" : "MXN",
  "recipientBankId" : "572e9d72e4b089259cf7dc6a",
  "iban" : "3056836688",
  "created" : "2016-05-08T01:59:15.02"
}, {
  "id" : "572e9d73e4b089259cf7dc8b",
  "amount" : 66109.07,
  "sourceCurrency" : "MXN",
  "targetCurrency" : "USD",
  "recipientBankId" : "572e9d72e4b089259cf7dc6c",
  "iban" : "7771148316",
  "created" : "2016-05-08T01:59:15.031"
}, {
  "id" : "572e9d73e4b089259cf7dc8d",
  "amount" : 66609.71,
  "sourceCurrency" : "MXN",
  "targetCurrency" : "GBP",
  "recipientBankId" : "572e9d72e4b089259cf7dc67",
  "iban" : "6448212277",
  "created" : "2016-05-08T01:59:15.042"
}, {
  "id" : "572e9d73e4b089259cf7dc8f",
  "amount" : 812.19,
  "sourceCurrency" : "MXN",
  "targetCurrency" : "INR",
  "recipientBankId" : "572e9d72e4b089259cf7dc67",
  "iban" : "2588182507",
  "created" : "2016-05-08T01:59:15.052"
}, {
  "id" : "572e9d73e4b089259cf7dc91",
  "amount" : 15935.57,
  "sourceCurrency" : "GBP",
  "targetCurrency" : "USD",
  "recipientBankId" : "572e9d72e4b089259cf7dc6c",
  "iban" : "6471505110",
  "created" : "2016-05-08T01:59:15.063"
}, {
  "id" : "572e9d73e4b089259cf7dc93",
  "amount" : 35381.10,
  "sourceCurrency" : "GBP",
  "targetCurrency" : "USD",
  "recipientBankId" : "572e9d72e4b089259cf7dc6c",
  "iban" : "2550348405",
  "created" : "2016-05-08T01:59:15.073"
}, {
  "id" : "572e9d73e4b089259cf7dc95",
  "amount" : 62486.74,
  "sourceCurrency" : "USD",
  "targetCurrency" : "EUR",
  "recipientBankId" : "572e9d72e4b089259cf7dc65",
  "iban" : "0042685126",
  "created" : "2016-05-08T01:59:15.084"
}, {
  "id" : "572e9d73e4b089259cf7dc97",
  "amount" : 46001.79,
  "sourceCurrency" : "GBP",
  "targetCurrency" : "INR",
  "recipientBankId" : "572e9d72e4b089259cf7dc67",
  "iban" : "6706180245",
  "created" : "2016-05-08T01:59:15.095"
} ]